…
``` r
# Construct a dataset that is limited to Excellent responses, and contains, year, state, and a variable that averages the data_value across locations within a state. 
mean_state_value = brfss %>%
  filter(response == "Excellent") %>%
  group_by(locationabbr, year) %>%
  summarize(mean_state_value = mean(data_value, na.rm = TRUE))
names(mean_state_value)[1] = "state"
mean_state_value %>%
  group_by(state) %>%
  summarise(n = n())
```

    ## # A tibble: 51 x 2
    ##    state     n
    ##    <chr> <int>
    ##  1 AK        7
    ##  2 AL        9
    ##  3 AR        9
    ##  4 AZ        9
    ##  5 CA        9
    ##  6 CO        9
    ##  7 CT        9
    ##  8 DC        9
    ##  9 DE        9
    ## 10 FL        8
    ## # ... with 41 more rows
…
